%YAML 1.1
%TAG !u! tag:unity3d.com,2011:
--- !u!1045 &1
EditorBuildSettings:
  m_ObjectHideFlags: 0
  serializedVersion: 2
  m_Scenes:
  - enabled: 1
    path: Assets/Scenes/MainMenu.unity
    guid: da20601b592a0fa41abdad839daa22de
  - enabled: 1
    path: Assets/Scenes/Online.unity
    guid: d1353525b6a009e418643ed10adafde5
